ix,dataset,model,explainer,accuracy,ics,c,p,n
0,numeric,wisard,frwi,0.959,0.6947155374317736,0.1378890306122443,0.755,0.864
1,numeric,wisard,lime,0.959,0.3620546549489796,0.14538137755102043,0.401,0.449
2,numeric,wisard,frwi,0.959,0.6849654795534037,0.13683035714285652,0.748,0.845
3,numeric,wisard,lime,0.959,0.3595415404321729,0.15345280612244896,0.414,0.436
4,numeric,wisard,frwi,0.9587,0.6778853112633879,0.13703571428571348,0.753,0.821
5,numeric,wisard,lime,0.9587,0.3609744748602017,0.15328443877551007,0.41,0.444
6,numeric,wisard,frwi,0.9588,0.683151953978886,0.13693239795918305,0.746,0.843
7,numeric,wisard,lime,0.9588,0.3568121972217458,0.14253571428571438,0.404,0.429
8,numeric,wisard,frwi,0.9598,0.6808814865344877,0.1359094387755096,0.75,0.83
9,numeric,wisard,lime,0.9598,0.37010489772514515,0.15068877551020404,0.426,0.446
10,numeric,wisard,frwi,0.9593,0.6785988062420791,0.13724234693877482,0.745,0.833
11,numeric,wisard,lime,0.9593,0.36153053006666824,0.14905994897959182,0.409,0.442
12,numeric,wisard,frwi,0.9594,0.6875176539216568,0.13757015306122367,0.749,0.852
13,numeric,wisard,lime,0.9594,0.3615680769458251,0.15277168367346952,0.417,0.437
14,numeric,wisard,frwi,0.96,0.6835778105318185,0.13787372448979524,0.75,0.841
15,numeric,wisard,lime,0.96,0.3667390024452177,0.15280229591836733,0.412,0.456
16,numeric,wisard,frwi,0.9604,0.6885006342337067,0.13831122448979513,0.766,0.835
17,numeric,wisard,lime,0.9604,0.3453733429888084,0.14286224489795918,0.398,0.408
18,numeric,wisard,frwi,0.9587,0.6972049410096149,0.13788903061224406,0.754,0.872
19,numeric,wisard,lime,0.9587,0.35924751844955993,0.1474770408163265,0.406,0.438
20,numeric,ridge_regression,frwi,0.8477,0.7090891269841272,0.12337882653061209,0.728,0.91
21,numeric,ridge_regression,lime,0.8477,0.3696153394328351,0.18189668367346942,0.4,0.519
22,numeric,ridge_regression,frwi,0.8477,0.7085172344019778,0.12416198979591805,0.72,0.923
23,numeric,ridge_regression,lime,0.8477,0.36966489862539137,0.1817869897959184,0.4,0.519
24,numeric,ridge_regression,frwi,0.8477,0.7149029017410408,0.12354974489795897,0.727,0.929
25,numeric,ridge_regression,lime,0.8477,0.37028772197478343,0.18224872448979595,0.401,0.52
26,numeric,ridge_regression,frwi,0.8477,0.7038852392241651,0.12356760204081596,0.712,0.921
27,numeric,ridge_regression,lime,0.8477,0.3698701863354037,0.18201785714285718,0.4,0.52
28,numeric,ridge_regression,frwi,0.8477,0.7072221607751359,0.1234298469387753,0.724,0.911
29,numeric,ridge_regression,lime,0.8477,0.3689985286259542,0.18141964285714288,0.399,0.518
30,numeric,ridge_regression,frwi,0.8477,0.7117786725577573,0.12371811224489766,0.721,0.93
31,numeric,ridge_regression,lime,0.8477,0.3695732717461304,0.18198979591836736,0.4,0.519
32,numeric,ridge_regression,frwi,0.8477,0.7037949315434303,0.12342474489795896,0.726,0.898
33,numeric,ridge_regression,lime,0.8477,0.3692022620798319,0.18165433673469392,0.399,0.519
34,numeric,ridge_regression,frwi,0.8477,0.7057541433317516,0.12432397959183654,0.722,0.912
35,numeric,ridge_regression,lime,0.8477,0.3697421472937001,0.1823010204081633,0.4,0.52
36,numeric,ridge_regression,frwi,0.8477,0.7029230208717006,0.12337499999999983,0.713,0.916
37,numeric,ridge_regression,lime,0.8477,0.3695796107126202,0.1819757653061225,0.4,0.519
38,numeric,ridge_regression,frwi,0.8477,0.7061496601676386,0.12365943877551008,0.715,0.923
39,numeric,ridge_regression,lime,0.8477,0.36962167839932486,0.18188265306122456,0.4,0.519
40,numeric,random_forest,frwi,0.9665,0.7503190209094164,0.11954209183673481,0.806,0.904
41,numeric,random_forest,lime,0.9665,0.2829123257401552,0.09856505102040822,0.277,0.362
42,numeric,random_forest,frwi,0.9679,0.7473424429917386,0.11945280612244896,0.807,0.895
43,numeric,random_forest,lime,0.9679,0.29708269054652875,0.10692091836734693,0.294,0.383
44,numeric,random_forest,frwi,0.9683,0.7397384919786095,0.11888775510204101,0.801,0.882
45,numeric,random_forest,lime,0.9683,0.30202744702467343,0.10629719387755103,0.297,0.392
46,numeric,random_forest,frwi,0.9694,0.7257569888842879,0.12005229591836736,0.801,0.85
47,numeric,random_forest,lime,0.9694,0.29508630365150545,0.1026530612244898,0.291,0.378
48,numeric,random_forest,frwi,0.9684,0.7515747131664803,0.12014030612244893,0.808,0.906
49,numeric,random_forest,lime,0.9684,0.2966055044510386,0.10529846938775508,0.294,0.38
50,numeric,random_forest,frwi,0.9693,0.7303845479204338,0.11871938775510212,0.805,0.854
51,numeric,random_forest,lime,0.9693,0.29182734063986493,0.10843494897959183,0.291,0.374
52,numeric,random_forest,frwi,0.968,0.7404544482650033,0.11928316326530616,0.804,0.881
53,numeric,random_forest,lime,0.968,0.29633783240707,0.10193367346938778,0.291,0.381
54,numeric,random_forest,frwi,0.9681,0.728733071339278,0.11897831632653076,0.795,0.862
55,numeric,random_forest,lime,0.9681,0.2979574666824695,0.10600892857142856,0.295,0.383
56,numeric,random_forest,frwi,0.9685,0.7299808282691764,0.11960204081632647,0.797,0.864
57,numeric,random_forest,lime,0.9685,0.29384002046544666,0.10541198979591836,0.291,0.377
58,numeric,random_forest,frwi,0.9685,0.731392041913342,0.11975892857142854,0.796,0.869
59,numeric,random_forest,lime,0.9685,0.2868420458553792,0.09805102040816323,0.28,0.368
60,fashion,wisard,frwi,0.8418,0.3173243056258426,0.14652040816326498,0.271,0.592
61,fashion,wisard,lime,0.8418,0.33948504799793333,0.1385510204081633,0.376,0.414
62,fashion,wisard,frwi,0.8397,0.3010629808777654,0.14787117346938763,0.249,0.608
63,fashion,wisard,lime,0.8397,0.3241028868232526,0.1525688775510204,0.349,0.423
64,fashion,wisard,frwi,0.8442,0.34585562751763743,0.14620790816326504,0.302,0.615
65,fashion,wisard,lime,0.8442,0.3378829043816019,0.14552423469387754,0.366,0.43
66,fashion,wisard,frwi,0.8421,0.3193395126792137,0.14602040816326495,0.271,0.603
67,fashion,wisard,lime,0.8421,0.32269342757393576,0.14223086734693874,0.349,0.408
68,fashion,wisard,frwi,0.8424,0.3304386906873677,0.14767984693877556,0.281,0.625
69,fashion,wisard,lime,0.8424,0.34596130448383733,0.15278316326530608,0.378,0.444
70,fashion,wisard,frwi,0.8403,0.3344546979000955,0.1467653061224487,0.289,0.609
71,fashion,wisard,lime,0.8403,0.330436581567326,0.1441454081632653,0.349,0.432
72,fashion,wisard,frwi,0.8381,0.3153337626728111,0.14536224489795901,0.266,0.602
73,fashion,wisard,lime,0.8381,0.3438402021652411,0.15236096938775512,0.377,0.439
74,fashion,wisard,frwi,0.8445,0.31416676936907495,0.14929591836734674,0.265,0.609
75,fashion,wisard,lime,0.8445,0.3312016944801028,0.14442857142857138,0.359,0.42
76,fashion,wisard,frwi,0.8444,0.3333284185700388,0.14329209183673433,0.29,0.591
77,fashion,wisard,lime,0.8444,0.34023604274306,0.1498112244897958,0.372,0.433
78,fashion,wisard,frwi,0.84,0.3167276387945133,0.14738647959183673,0.265,0.621
79,fashion,wisard,lime,0.84,0.3425308388869195,0.14676403061224494,0.378,0.428
80,fashion,ridge_regression,frwi,0.8113,0.7209931617603552,0.13606249999999973,0.751,0.939
81,fashion,ridge_regression,lime,0.8113,0.3251389734513275,0.16315816326530608,0.343,0.448
82,fashion,ridge_regression,frwi,0.8113,0.71645273095683,0.1356275510204078,0.74,0.942
83,fashion,ridge_regression,lime,0.8113,0.3253983764186633,0.16410459183673468,0.343,0.45
84,fashion,ridge_regression,frwi,0.8113,0.7214034864106782,0.13497831632653032,0.752,0.936
85,fashion,ridge_regression,lime,0.8113,0.3280079120839825,0.16452551020408163,0.347,0.452
86,fashion,ridge_regression,frwi,0.8113,0.7287744181521469,0.13620663265306096,0.762,0.945
87,fashion,ridge_regression,lime,0.8113,0.3265939112437428,0.16379336734693878,0.345,0.45
88,fashion,ridge_regression,frwi,0.8113,0.7197933243409993,0.1353418367346934,0.747,0.94
89,fashion,ridge_regression,lime,0.8113,0.3273717455765242,0.1639795918367347,0.346,0.451
90,fashion,ridge_regression,frwi,0.8113,0.7276538193583956,0.13523979591836696,0.759,0.944
91,fashion,ridge_regression,lime,0.8113,0.3265784679437813,0.16383290816326526,0.345,0.45
92,fashion,ridge_regression,frwi,0.8113,0.7219968493014456,0.1360841836734691,0.751,0.942
93,fashion,ridge_regression,lime,0.8113,0.325262371681416,0.16284056122448975,0.343,0.448
94,fashion,ridge_regression,frwi,0.8113,0.7210790157556816,0.13590051020408134,0.749,0.942
95,fashion,ridge_regression,lime,0.8113,0.3265973984405083,0.1637844387755102,0.345,0.45
96,fashion,ridge_regression,frwi,0.8113,0.7215670660551458,0.13595790816326497,0.75,0.942
97,fashion,ridge_regression,lime,0.8113,0.3265864386792453,0.1638125,0.345,0.45
98,fashion,ridge_regression,frwi,0.8113,0.7235197576666068,0.135770408163265,0.754,0.941
99,fashion,ridge_regression,lime,0.8113,0.32718494429365225,0.1644566326530612,0.346,0.451
100,fashion,random_forest,frwi,0.8787,0.4150129527510561,0.11812117346938841,0.333,0.802
101,fashion,random_forest,lime,0.8787,0.20038742335524812,0.07599362244897961,0.185,0.262
102,fashion,random_forest,frwi,0.8758,0.43219854334722463,0.11769387755102101,0.356,0.785
103,fashion,random_forest,lime,0.8758,0.20306659803611024,0.0752551020408163,0.189,0.262
104,fashion,random_forest,frwi,0.8774,0.4547718535072188,0.11836862244898022,0.382,0.794
105,fashion,random_forest,lime,0.8774,0.20616171022727273,0.07993750000000001,0.191,0.271
106,fashion,random_forest,frwi,0.8785,0.4722164760182908,0.11753443877551073,0.401,0.804
107,fashion,random_forest,lime,0.8785,0.1979867930029154,0.07535714285714287,0.183,0.258
108,fashion,random_forest,frwi,0.8762,0.4513347377131906,0.11978954081632694,0.373,0.82
109,fashion,random_forest,lime,0.8762,0.20227577376093295,0.08177551020408161,0.187,0.268
110,fashion,random_forest,frwi,0.8754,0.4395222574183582,0.11722704081632716,0.361,0.802
111,fashion,random_forest,lime,0.8754,0.210316093220339,0.08247193877551022,0.196,0.276
112,fashion,random_forest,frwi,0.8804,0.4392722805423537,0.11807270408163313,0.36,0.808
113,fashion,random_forest,lime,0.8804,0.19767535921592114,0.07509311224489795,0.18,0.263
114,fashion,random_forest,frwi,0.8769,0.4167683936451895,0.11834821428571482,0.336,0.797
115,fashion,random_forest,lime,0.8769,0.19757238605442173,0.07580484693877557,0.182,0.259
116,fashion,random_forest,frwi,0.8751,0.4313362378056346,0.11738392857142903,0.352,0.799
117,fashion,random_forest,lime,0.8751,0.19730535946196662,0.07249617346938779,0.18,0.26
118,fashion,random_forest,frwi,0.8778,0.4704307583039819,0.11968877551020461,0.398,0.813
119,fashion,random_forest,lime,0.8778,0.20140845818471195,0.07848341836734692,0.185,0.267
